/Users/bahadirozdemir/Projects/Bkm.NetCorePOC/Bkm.NetCorePOC
--output-path=obj/Debug/netcoreapp2.0/
--application-name=Bkm.NetCorePOC
--content-root=/Users/bahadirozdemir/Projects/Bkm.NetCorePOC/Bkm.NetCorePOC
--file=
